Sistemas Digitais/T6/dump.vcd
$date
	Tue Apr 26 21:57:35 2016
$end
$version
	Icarus Verilog
$end
$timescale
	1s
$end
$scope module tb_RAM_async $end
$scope module R $end
$var wire 6 ! address [5:0] $end
$var wire 1 " clk $end
$var wire 12 # data [11:0] $end
$var wire 1 $ w $end
$upscope $end
$upscope $end
$scope module tb_RAM_async $end
$var reg 12 % data_r [11:0] $end
$upscope $end
$scope module tb_RAM_async $end
$var wire 12 & data [11:0] $end
$upscope $end
$scope module tb_RAM_async $end
$var reg 1 $ w $end
$upscope $end
$enddefinitions $end
#0
$dumpvars
bx &
bx %
x$
bx #
0"
bx !
$end
#1
1"
#2
b1010 #
b1010 &
0"
1$
b1010 %
b10 !
#3
1"
#4
0"
0$
#5
1"
#6
bx #
bx &
0"
b11 !
#7
1"
#8
0"
b10100 %
#9
1"
#10
b10100 #
b10100 &
0"
1$
#11
1"
#12
0"
0$
#13
1"
#14
b1010 #
b1010 &
0"
b10 !
#15
1"
#16
b10100 #
b10100 &
0"
b11 !
